﻿{
  "PluginInfo": {
    "PluginName": "WPN",
    "MajorVersion": 1,
    "MinorVersion": 1,
    "Author": "Alias",
    "PluginWebSite": "http://alias.io",
    "Desc": "Wordpress .Net",
    "AssemblyReferenced": true,
    "PluginExecutor": "WPN.WPNApp",
    "PluginAssembly": "WPN.dll"
  }
}